"C:\Program Files\Java\jdk1.8.0_92\bin\java" -Dvisualvm.id=885275225549700 "-javaagent:C:\Program Files\JetBrains\IntelliJ IDEA 2017.3\lib\idea_rt.jar=57645:C:\Program Files\JetBrains\IntelliJ IDEA 2017.3\bin" -Dfile.encoding=UTF-8 -classpath "C:\Program Files\Java\jdk1.8.0_92\jre\lib\charsets.jar;C:\Program Files\Java\jdk1.8.0_92\jre\lib\deploy.jar;C:\Program Files\Java\jdk1.8.0_92\jre\lib\ext\access-bridge-64.jar;C:\Program Files\Java\jdk1.8.0_92\jre\lib\ext\cldrdata.jar;C:\Program Files\Java\jdk1.8.0_92\jre\lib\ext\dnsns.jar;C:\Program Files\Java\jdk1.8.0_92\jre\lib\ext\jaccess.jar;C:\Program Files\Java\jdk1.8.0_92\jre\lib\ext\jfxrt.jar;C:\Program Files\Java\jdk1.8.0_92\jre\lib\ext\localedata.jar;C:\Program Files\Java\jdk1.8.0_92\jre\lib\ext\nashorn.jar;C:\Program Files\Java\jdk1.8.0_92\jre\lib\ext\sunec.jar;C:\Program Files\Java\jdk1.8.0_92\jre\lib\ext\sunjce_provider.jar;C:\Program Files\Java\jdk1.8.0_92\jre\lib\ext\sunmscapi.jar;C:\Program Files\Java\jdk1.8.0_92\jre\lib\ext\sunpkcs11.jar;C:\Program Files\Java\jdk1.8.0_92\jre\lib\ext\zipfs.jar;C:\Program Files\Java\jdk1.8.0_92\jre\lib\javaws.jar;C:\Program Files\Java\jdk1.8.0_92\jre\lib\jce.jar;C:\Program Files\Java\jdk1.8.0_92\jre\lib\jfr.jar;C:\Program Files\Java\jdk1.8.0_92\jre\lib\jfxswt.jar;C:\Program Files\Java\jdk1.8.0_92\jre\lib\jsse.jar;C:\Program Files\Java\jdk1.8.0_92\jre\lib\management-agent.jar;C:\Program Files\Java\jdk1.8.0_92\jre\lib\plugin.jar;C:\Program Files\Java\jdk1.8.0_92\jre\lib\resources.jar;C:\Program Files\Java\jdk1.8.0_92\jre\lib\rt.jar;C:\Projects\Ximedes\AdventOfCode2017\out\production\AdventOfCode2017;C:\Users\Erik\.IntelliJIdea2017.3\config\plugins\Kotlin\kotlinc\lib\kotlin-stdlib.jar;C:\Users\Erik\.IntelliJIdea2017.3\config\plugins\Kotlin\kotlinc\lib\kotlin-reflect.jar;C:\Users\Erik\.IntelliJIdea2017.3\config\plugins\Kotlin\kotlinc\lib\kotlin-test.jar;C:\Users\Erik\.IntelliJIdea2017.3\config\plugins\Kotlin\kotlinc\lib\kotlin-stdlib-jdk7.jar;C:\Users\Erik\.IntelliJIdea2017.3\config\plugins\Kotlin\kotlinc\lib\kotlin-stdlib-jdk8.jar;C:\Program Files\JetBrains\IntelliJ IDEA 2017.3\lib\groovy-all-2.4.12.jar;C:\Users\Erik\.m2\repository\org\junit\jupiter\junit-jupiter-api\5.0.0\junit-jupiter-api-5.0.0.jar;C:\Users\Erik\.m2\repository\org\apiguardian\apiguardian-api\1.0.0\apiguardian-api-1.0.0.jar;C:\Users\Erik\.m2\repository\org\opentest4j\opentest4j\1.0.0\opentest4j-1.0.0.jar;C:\Users\Erik\.m2\repository\org\junit\platform\junit-platform-commons\1.0.0\junit-platform-commons-1.0.0.jar" dec23.Dec23_program2Kt
b: 109300, c: 126300
h = 0 	b-c = 17000	 this: 0	total: 0
h = 0 	b-c = 16983	 this: 0	total: 0
h = 0 	b-c = 16966	 this: 0	total: 0
h = 0 	b-c = 16949	 this: 0	total: 0
h = 0 	b-c = 16932	 this: 0	total: 0
h = 0 	b-c = 16915	 this: 0	total: 0
h = 0 	b-c = 16898	 this: 0	total: 0
h = 0 	b-c = 16881	 this: 0	total: 0
h = 0 	b-c = 16864	 this: 0	total: 0
h = 1 	b-c = 16847	 this: 0	total: 0
h = 1 	b-c = 16830	 this: 0	total: 0
h = 1 	b-c = 16813	 this: 0	total: 0
h = 1 	b-c = 16796	 this: 0	total: 0
h = 1 	b-c = 16779	 this: 0	total: 0
h = 1 	b-c = 16762	 this: 0	total: 0
h = 1 	b-c = 16745	 this: 0	total: 0
h = 1 	b-c = 16728	 this: 0	total: 0
h = 2 	b-c = 16711	 this: 0	total: 0
h = 2 	b-c = 16694	 this: 0	total: 0
h = 2 	b-c = 16677	 this: 0	total: 0
h = 2 	b-c = 16660	 this: 0	total: 0
h = 2 	b-c = 16643	 this: 0	total: 0
h = 2 	b-c = 16626	 this: 0	total: 0
h = 2 	b-c = 16609	 this: 0	total: 0
h = 2 	b-c = 16592	 this: 0	total: 0
h = 2 	b-c = 16575	 this: 0	total: 0
h = 2 	b-c = 16558	 this: 0	total: 0
h = 2 	b-c = 16541	 this: 0	total: 0
h = 2 	b-c = 16524	 this: 0	total: 0
h = 3 	b-c = 16507	 this: 0	total: 0
h = 3 	b-c = 16490	 this: 0	total: 0
h = 3 	b-c = 16473	 this: 0	total: 0
h = 3 	b-c = 16456	 this: 0	total: 0
h = 3 	b-c = 16439	 this: 0	total: 0
h = 3 	b-c = 16422	 this: 0	total: 0
h = 3 	b-c = 16405	 this: 0	total: 0
h = 3 	b-c = 16388	 this: 0	total: 0
h = 3 	b-c = 16371	 this: 0	total: 0
h = 3 	b-c = 16354	 this: 0	total: 0
h = 3 	b-c = 16337	 this: 0	total: 0
h = 3 	b-c = 16320	 this: 0	total: 0
h = 3 	b-c = 16303	 this: 0	total: 0
h = 3 	b-c = 16286	 this: 0	total: 0
h = 3 	b-c = 16269	 this: 0	total: 0
h = 3 	b-c = 16252	 this: 0	total: 0
h = 3 	b-c = 16235	 this: 0	total: 0
h = 3 	b-c = 16218	 this: 0	total: 0
h = 3 	b-c = 16201	 this: 0	total: 0
h = 3 	b-c = 16184	 this: 0	total: 0
h = 3 	b-c = 16167	 this: 0	total: 0
h = 3 	b-c = 16150	 this: 0	total: 0
h = 3 	b-c = 16133	 this: 0	total: 0
h = 3 	b-c = 16116	 this: 0	total: 0
h = 3 	b-c = 16099	 this: 0	total: 0
h = 3 	b-c = 16082	 this: 0	total: 0
h = 3 	b-c = 16065	 this: 0	total: 0
h = 3 	b-c = 16048	 this: 0	total: 0
h = 4 	b-c = 16031	 this: 0	total: 0
h = 4 	b-c = 16014	 this: 0	total: 0
h = 4 	b-c = 15997	 this: 0	total: 0
h = 4 	b-c = 15980	 this: 0	total: 0
h = 4 	b-c = 15963	 this: 0	total: 0
h = 4 	b-c = 15946	 this: 0	total: 0
h = 4 	b-c = 15929	 this: 0	total: 0
h = 4 	b-c = 15912	 this: 0	total: 0
h = 4 	b-c = 15895	 this: 0	total: 0
h = 4 	b-c = 15878	 this: 0	total: 0
h = 4 	b-c = 15861	 this: 0	total: 0
h = 4 	b-c = 15844	 this: 0	total: 0
h = 4 	b-c = 15827	 this: 0	total: 0
h = 4 	b-c = 15810	 this: 0	total: 0
h = 4 	b-c = 15793	 this: 0	total: 0
h = 4 	b-c = 15776	 this: 0	total: 0
h = 4 	b-c = 15759	 this: 0	total: 0
h = 4 	b-c = 15742	 this: 0	total: 0
h = 4 	b-c = 15725	 this: 0	total: 0
h = 4 	b-c = 15708	 this: 0	total: 0
h = 5 	b-c = 15691	 this: 0	total: 0
h = 5 	b-c = 15674	 this: 0	total: 0
h = 5 	b-c = 15657	 this: 0	total: 0
h = 5 	b-c = 15640	 this: 0	total: 0
h = 5 	b-c = 15623	 this: 0	total: 0
h = 5 	b-c = 15606	 this: 0	total: 0
h = 6 	b-c = 15589	 this: 0	total: 0
h = 6 	b-c = 15572	 this: 0	total: 0
h = 6 	b-c = 15555	 this: 0	total: 0
h = 6 	b-c = 15538	 this: 0	total: 0
h = 6 	b-c = 15521	 this: 0	total: 0
h = 6 	b-c = 15504	 this: 0	total: 0
h = 7 	b-c = 15487	 this: 0	total: 0
h = 7 	b-c = 15470	 this: 0	total: 0
h = 7 	b-c = 15453	 this: 0	total: 0
h = 7 	b-c = 15436	 this: 0	total: 0
h = 8 	b-c = 15419	 this: 0	total: 0
h = 8 	b-c = 15402	 this: 0	total: 0
h = 8 	b-c = 15385	 this: 0	total: 0
h = 8 	b-c = 15368	 this: 0	total: 0
h = 8 	b-c = 15351	 this: 0	total: 0
h = 8 	b-c = 15334	 this: 0	total: 0
h = 8 	b-c = 15317	 this: 0	total: 0
h = 8 	b-c = 15300	 this: 0	total: 0
h = 8 	b-c = 15283	 this: 0	total: 0
h = 8 	b-c = 15266	 this: 0	total: 0
h = 8 	b-c = 15249	 this: 0	total: 0
h = 8 	b-c = 15232	 this: 0	total: 0
h = 8 	b-c = 15215	 this: 0	total: 0
h = 8 	b-c = 15198	 this: 0	total: 0
h = 9 	b-c = 15181	 this: 0	total: 0
h = 9 	b-c = 15164	 this: 0	total: 0
h = 9 	b-c = 15147	 this: 0	total: 0
h = 9 	b-c = 15130	 this: 0	total: 0
h = 10 	b-c = 15113	 this: 0	total: 0
h = 10 	b-c = 15096	 this: 0	total: 0
h = 10 	b-c = 15079	 this: 0	total: 0
h = 10 	b-c = 15062	 this: 0	total: 0
h = 10 	b-c = 15045	 this: 0	total: 0
h = 10 	b-c = 15028	 this: 0	total: 0
h = 10 	b-c = 15011	 this: 0	total: 0
h = 10 	b-c = 14994	 this: 0	total: 0
h = 11 	b-c = 14977	 this: 0	total: 0
h = 11 	b-c = 14960	 this: 0	total: 0
h = 11 	b-c = 14943	 this: 0	total: 0
h = 11 	b-c = 14926	 this: 0	total: 0
h = 11 	b-c = 14909	 this: 0	total: 0
h = 11 	b-c = 14892	 this: 0	total: 0
h = 11 	b-c = 14875	 this: 0	total: 0
h = 11 	b-c = 14858	 this: 0	total: 0
h = 11 	b-c = 14841	 this: 0	total: 0
h = 11 	b-c = 14824	 this: 0	total: 0
h = 12 	b-c = 14807	 this: 0	total: 0
h = 12 	b-c = 14790	 this: 0	total: 0
h = 12 	b-c = 14773	 this: 0	total: 0
h = 12 	b-c = 14756	 this: 0	total: 0
h = 12 	b-c = 14739	 this: 0	total: 0
h = 12 	b-c = 14722	 this: 0	total: 0
h = 12 	b-c = 14705	 this: 0	total: 0
h = 12 	b-c = 14688	 this: 0	total: 0
h = 12 	b-c = 14671	 this: 0	total: 0
h = 12 	b-c = 14654	 this: 0	total: 0
h = 12 	b-c = 14637	 this: 0	total: 0
h = 12 	b-c = 14620	 this: 0	total: 0
h = 13 	b-c = 14603	 this: 0	total: 0
h = 13 	b-c = 14586	 this: 0	total: 0
h = 14 	b-c = 14569	 this: 0	total: 0
h = 14 	b-c = 14552	 this: 0	total: 0
h = 14 	b-c = 14535	 this: 0	total: 0
h = 14 	b-c = 14518	 this: 0	total: 0
h = 15 	b-c = 14501	 this: 0	total: 0
h = 15 	b-c = 14484	 this: 0	total: 0
h = 16 	b-c = 14467	 this: 0	total: 0
h = 16 	b-c = 14450	 this: 0	total: 0
h = 16 	b-c = 14433	 this: 0	total: 0
h = 16 	b-c = 14416	 this: 0	total: 0
h = 16 	b-c = 14399	 this: 0	total: 0
h = 16 	b-c = 14382	 this: 0	total: 0
h = 16 	b-c = 14365	 this: 0	total: 0
h = 16 	b-c = 14348	 this: 0	total: 0
h = 16 	b-c = 14331	 this: 0	total: 0
h = 16 	b-c = 14314	 this: 0	total: 0
h = 16 	b-c = 14297	 this: 0	total: 0
h = 16 	b-c = 14280	 this: 0	total: 0
h = 16 	b-c = 14263	 this: 0	total: 0
h = 16 	b-c = 14246	 this: 0	total: 0
h = 16 	b-c = 14229	 this: 0	total: 0
h = 16 	b-c = 14212	 this: 0	total: 0
h = 16 	b-c = 14195	 this: 0	total: 0
h = 16 	b-c = 14178	 this: 0	total: 0
h = 17 	b-c = 14161	 this: 0	total: 0
h = 17 	b-c = 14144	 this: 0	total: 0
h = 17 	b-c = 14127	 this: 0	total: 0
h = 17 	b-c = 14110	 this: 0	total: 0
h = 18 	b-c = 14093	 this: 0	total: 0
h = 18 	b-c = 14076	 this: 0	total: 0
h = 19 	b-c = 14059	 this: 0	total: 0
h = 19 	b-c = 14042	 this: 0	total: 0
h = 19 	b-c = 14025	 this: 0	total: 0
h = 19 	b-c = 14008	 this: 0	total: 0
h = 19 	b-c = 13991	 this: 0	total: 0
h = 19 	b-c = 13974	 this: 0	total: 0
h = 19 	b-c = 13957	 this: 0	total: 0
h = 19 	b-c = 13940	 this: 0	total: 0
h = 19 	b-c = 13923	 this: 0	total: 0
h = 19 	b-c = 13906	 this: 0	total: 0
h = 19 	b-c = 13889	 this: 0	total: 0
h = 19 	b-c = 13872	 this: 0	total: 0
h = 19 	b-c = 13855	 this: 0	total: 0
h = 19 	b-c = 13838	 this: 0	total: 0
h = 19 	b-c = 13821	 this: 0	total: 0
h = 19 	b-c = 13804	 this: 0	total: 0
h = 19 	b-c = 13787	 this: 0	total: 0
h = 19 	b-c = 13770	 this: 0	total: 0
h = 19 	b-c = 13753	 this: 0	total: 0
h = 19 	b-c = 13736	 this: 0	total: 0
h = 19 	b-c = 13719	 this: 0	total: 0
h = 19 	b-c = 13702	 this: 0	total: 0
h = 19 	b-c = 13685	 this: 0	total: 0
h = 19 	b-c = 13668	 this: 0	total: 0
h = 19 	b-c = 13651	 this: 0	total: 0
h = 19 	b-c = 13634	 this: 0	total: 0
h = 19 	b-c = 13617	 this: 0	total: 0
h = 19 	b-c = 13600	 this: 0	total: 0
h = 19 	b-c = 13583	 this: 0	total: 0
h = 19 	b-c = 13566	 this: 0	total: 0
h = 19 	b-c = 13549	 this: 0	total: 0
h = 19 	b-c = 13532	 this: 0	total: 0
h = 19 	b-c = 13515	 this: 0	total: 0
h = 19 	b-c = 13498	 this: 0	total: 0
h = 19 	b-c = 13481	 this: 0	total: 0
h = 19 	b-c = 13464	 this: 0	total: 0
h = 19 	b-c = 13447	 this: 0	total: 0
h = 19 	b-c = 13430	 this: 0	total: 0
h = 19 	b-c = 13413	 this: 0	total: 0
h = 19 	b-c = 13396	 this: 0	total: 0
h = 20 	b-c = 13379	 this: 0	total: 0
h = 20 	b-c = 13362	 this: 0	total: 0
h = 20 	b-c = 13345	 this: 0	total: 0
h = 20 	b-c = 13328	 this: 0	total: 0
h = 20 	b-c = 13311	 this: 0	total: 0
h = 20 	b-c = 13294	 this: 0	total: 0
h = 21 	b-c = 13277	 this: 0	total: 0
h = 21 	b-c = 13260	 this: 0	total: 0
h = 21 	b-c = 13243	 this: 0	total: 0
h = 21 	b-c = 13226	 this: 0	total: 0
h = 21 	b-c = 13209	 this: 0	total: 0
h = 21 	b-c = 13192	 this: 0	total: 0
h = 21 	b-c = 13175	 this: 0	total: 0
h = 21 	b-c = 13158	 this: 0	total: 0
h = 22 	b-c = 13141	 this: 0	total: 0
h = 22 	b-c = 13124	 this: 0	total: 0
h = 22 	b-c = 13107	 this: 0	total: 0
h = 22 	b-c = 13090	 this: 0	total: 0
h = 23 	b-c = 13073	 this: 0	total: 0
h = 23 	b-c = 13056	 this: 0	total: 0
h = 23 	b-c = 13039	 this: 0	total: 0
h = 23 	b-c = 13022	 this: 0	total: 0
h = 23 	b-c = 13005	 this: 0	total: 0
h = 23 	b-c = 12988	 this: 0	total: 0
h = 24 	b-c = 12971	 this: 0	total: 0
h = 24 	b-c = 12954	 this: 0	total: 0
h = 25 	b-c = 12937	 this: 0	total: 0
h = 25 	b-c = 12920	 this: 0	total: 0
h = 25 	b-c = 12903	 this: 0	total: 0
h = 25 	b-c = 12886	 this: 0	total: 0
h = 25 	b-c = 12869	 this: 0	total: 0
h = 25 	b-c = 12852	 this: 0	total: 0
h = 25 	b-c = 12835	 this: 0	total: 0
h = 25 	b-c = 12818	 this: 0	total: 0
h = 25 	b-c = 12801	 this: 0	total: 0
h = 25 	b-c = 12784	 this: 0	total: 0
h = 25 	b-c = 12767	 this: 0	total: 0
h = 25 	b-c = 12750	 this: 0	total: 0
h = 26 	b-c = 12733	 this: 0	total: 0
h = 26 	b-c = 12716	 this: 0	total: 0
h = 26 	b-c = 12699	 this: 0	total: 0
h = 26 	b-c = 12682	 this: 0	total: 0
h = 26 	b-c = 12665	 this: 0	total: 0
h = 26 	b-c = 12648	 this: 0	total: 0
h = 26 	b-c = 12631	 this: 0	total: 0
h = 26 	b-c = 12614	 this: 0	total: 0
h = 26 	b-c = 12597	 this: 0	total: 0
h = 26 	b-c = 12580	 this: 0	total: 0
h = 26 	b-c = 12563	 this: 0	total: 0
h = 26 	b-c = 12546	 this: 0	total: 0
h = 26 	b-c = 12529	 this: 0	total: 0
h = 26 	b-c = 12512	 this: 0	total: 0
h = 26 	b-c = 12495	 this: 0	total: 0
h = 26 	b-c = 12478	 this: 0	total: 0
h = 26 	b-c = 12461	 this: 0	total: 0
h = 26 	b-c = 12444	 this: 0	total: 0
h = 26 	b-c = 12427	 this: 0	total: 0
h = 26 	b-c = 12410	 this: 0	total: 0
h = 26 	b-c = 12393	 this: 0	total: 0
h = 26 	b-c = 12376	 this: 0	total: 0
h = 26 	b-c = 12359	 this: 0	total: 0
h = 26 	b-c = 12342	 this: 0	total: 0
h = 26 	b-c = 12325	 this: 0	total: 0
h = 26 	b-c = 12308	 this: 0	total: 0
h = 26 	b-c = 12291	 this: 0	total: 0
h = 26 	b-c = 12274	 this: 0	total: 0
h = 27 	b-c = 12257	 this: 0	total: 0
h = 27 	b-c = 12240	 this: 0	total: 0
h = 28 	b-c = 12223	 this: 0	total: 0
h = 28 	b-c = 12206	 this: 0	total: 0
h = 28 	b-c = 12189	 this: 0	total: 0
h = 28 	b-c = 12172	 this: 0	total: 0
h = 28 	b-c = 12155	 this: 0	total: 0
h = 28 	b-c = 12138	 this: 0	total: 0
h = 28 	b-c = 12121	 this: 0	total: 0
h = 28 	b-c = 12104	 this: 0	total: 0
h = 28 	b-c = 12087	 this: 0	total: 0
h = 28 	b-c = 12070	 this: 0	total: 0
h = 28 	b-c = 12053	 this: 0	total: 0
h = 28 	b-c = 12036	 this: 0	total: 0
h = 29 	b-c = 12019	 this: 0	total: 0
h = 29 	b-c = 12002	 this: 0	total: 0
h = 29 	b-c = 11985	 this: 0	total: 0
h = 29 	b-c = 11968	 this: 0	total: 0
h = 29 	b-c = 11951	 this: 0	total: 0
h = 29 	b-c = 11934	 this: 0	total: 0
h = 29 	b-c = 11917	 this: 0	total: 0
h = 29 	b-c = 11900	 this: 0	total: 0
h = 29 	b-c = 11883	 this: 0	total: 0
h = 29 	b-c = 11866	 this: 0	total: 0
h = 30 	b-c = 11849	 this: 0	total: 0
h = 30 	b-c = 11832	 this: 0	total: 0
h = 30 	b-c = 11815	 this: 0	total: 0
h = 30 	b-c = 11798	 this: 0	total: 0
h = 30 	b-c = 11781	 this: 0	total: 0
h = 30 	b-c = 11764	 this: 0	total: 0
h = 31 	b-c = 11747	 this: 0	total: 0
h = 31 	b-c = 11730	 this: 0	total: 0
h = 31 	b-c = 11713	 this: 0	total: 0
h = 31 	b-c = 11696	 this: 0	total: 0
h = 31 	b-c = 11679	 this: 0	total: 0
h = 31 	b-c = 11662	 this: 0	total: 0
h = 31 	b-c = 11645	 this: 0	total: 0
h = 31 	b-c = 11628	 this: 0	total: 0
h = 32 	b-c = 11611	 this: 0	total: 0
h = 32 	b-c = 11594	 this: 0	total: 0
h = 32 	b-c = 11577	 this: 0	total: 0
h = 32 	b-c = 11560	 this: 0	total: 0
h = 33 	b-c = 11543	 this: 0	total: 0
h = 33 	b-c = 11526	 this: 0	total: 0
h = 33 	b-c = 11509	 this: 0	total: 0
h = 33 	b-c = 11492	 this: 0	total: 0
h = 33 	b-c = 11475	 this: 0	total: 0
h = 33 	b-c = 11458	 this: 0	total: 0
h = 34 	b-c = 11441	 this: 0	total: 0
h = 34 	b-c = 11424	 this: 0	total: 0
h = 34 	b-c = 11407	 this: 0	total: 0
h = 34 	b-c = 11390	 this: 0	total: 0
h = 34 	b-c = 11373	 this: 0	total: 0
h = 34 	b-c = 11356	 this: 0	total: 0
h = 34 	b-c = 11339	 this: 0	total: 0
h = 34 	b-c = 11322	 this: 0	total: 0
h = 34 	b-c = 11305	 this: 0	total: 0
h = 34 	b-c = 11288	 this: 0	total: 0
h = 34 	b-c = 11271	 this: 0	total: 0
h = 34 	b-c = 11254	 this: 0	total: 0
h = 34 	b-c = 11237	 this: 0	total: 0
h = 34 	b-c = 11220	 this: 0	total: 0
h = 34 	b-c = 11203	 this: 0	total: 0
h = 34 	b-c = 11186	 this: 0	total: 0
h = 34 	b-c = 11169	 this: 0	total: 0
h = 34 	b-c = 11152	 this: 0	total: 0
h = 34 	b-c = 11135	 this: 0	total: 0
h = 34 	b-c = 11118	 this: 0	total: 0
h = 34 	b-c = 11101	 this: 0	total: 0
h = 34 	b-c = 11084	 this: 0	total: 0
h = 34 	b-c = 11067	 this: 0	total: 0
h = 34 	b-c = 11050	 this: 0	total: 0
h = 34 	b-c = 11033	 this: 0	total: 0
h = 34 	b-c = 11016	 this: 0	total: 0
h = 35 	b-c = 10999	 this: 0	total: 0
h = 35 	b-c = 10982	 this: 0	total: 0
h = 35 	b-c = 10965	 this: 0	total: 0
h = 35 	b-c = 10948	 this: 0	total: 0
h = 35 	b-c = 10931	 this: 0	total: 0
h = 35 	b-c = 10914	 this: 0	total: 0
h = 35 	b-c = 10897	 this: 0	total: 0
h = 35 	b-c = 10880	 this: 0	total: 0
h = 35 	b-c = 10863	 this: 0	total: 0
h = 35 	b-c = 10846	 this: 0	total: 0
h = 36 	b-c = 10829	 this: 0	total: 0
h = 36 	b-c = 10812	 this: 0	total: 0
h = 36 	b-c = 10795	 this: 0	total: 0
h = 36 	b-c = 10778	 this: 0	total: 0
h = 36 	b-c = 10761	 this: 0	total: 0
h = 36 	b-c = 10744	 this: 0	total: 0
h = 36 	b-c = 10727	 this: 0	total: 0
h = 36 	b-c = 10710	 this: 0	total: 0
h = 36 	b-c = 10693	 this: 0	total: 0
h = 36 	b-c = 10676	 this: 0	total: 0
h = 36 	b-c = 10659	 this: 0	total: 0
h = 36 	b-c = 10642	 this: 0	total: 0
h = 36 	b-c = 10625	 this: 0	total: 0
h = 36 	b-c = 10608	 this: 0	total: 0
h = 36 	b-c = 10591	 this: 0	total: 0
h = 36 	b-c = 10574	 this: 0	total: 0
h = 36 	b-c = 10557	 this: 0	total: 0
h = 36 	b-c = 10540	 this: 0	total: 0
h = 37 	b-c = 10523	 this: 0	total: 0
h = 37 	b-c = 10506	 this: 0	total: 0
h = 38 	b-c = 10489	 this: 0	total: 0
h = 38 	b-c = 10472	 this: 0	total: 0
h = 38 	b-c = 10455	 this: 0	total: 0
h = 38 	b-c = 10438	 this: 0	total: 0
h = 39 	b-c = 10421	 this: 0	total: 0
h = 39 	b-c = 10404	 this: 0	total: 0
h = 39 	b-c = 10387	 this: 0	total: 0
h = 39 	b-c = 10370	 this: 0	total: 0
h = 39 	b-c = 10353	 this: 0	total: 0
h = 39 	b-c = 10336	 this: 0	total: 0
h = 40 	b-c = 10319	 this: 0	total: 0
h = 40 	b-c = 10302	 this: 0	total: 0
h = 40 	b-c = 10285	 this: 0	total: 0
h = 40 	b-c = 10268	 this: 0	total: 0
h = 40 	b-c = 10251	 this: 0	total: 0
h = 40 	b-c = 10234	 this: 0	total: 0
h = 40 	b-c = 10217	 this: 0	total: 0
h = 40 	b-c = 10200	 this: 0	total: 0
h = 40 	b-c = 10183	 this: 0	total: 0
h = 40 	b-c = 10166	 this: 0	total: 0
h = 40 	b-c = 10149	 this: 0	total: 0
h = 40 	b-c = 10132	 this: 0	total: 0
h = 40 	b-c = 10115	 this: 0	total: 0
h = 40 	b-c = 10098	 this: 0	total: 0
h = 40 	b-c = 10081	 this: 0	total: 0
h = 40 	b-c = 10064	 this: 0	total: 0
h = 40 	b-c = 10047	 this: 0	total: 0
h = 40 	b-c = 10030	 this: 0	total: 0
h = 40 	b-c = 10013	 this: 0	total: 0
h = 40 	b-c = 9996	 this: 0	total: 0
h = 40 	b-c = 9979	 this: 0	total: 0
h = 40 	b-c = 9962	 this: 0	total: 0
h = 40 	b-c = 9945	 this: 0	total: 0
h = 40 	b-c = 9928	 this: 0	total: 0
h = 40 	b-c = 9911	 this: 0	total: 0
h = 40 	b-c = 9894	 this: 0	total: 0
h = 41 	b-c = 9877	 this: 0	total: 0
h = 41 	b-c = 9860	 this: 0	total: 0
h = 41 	b-c = 9843	 this: 0	total: 0
h = 41 	b-c = 9826	 this: 0	total: 0
h = 42 	b-c = 9809	 this: 0	total: 0
h = 42 	b-c = 9792	 this: 0	total: 0
h = 42 	b-c = 9775	 this: 0	total: 0
h = 42 	b-c = 9758	 this: 0	total: 0
h = 42 	b-c = 9741	 this: 0	total: 0
h = 42 	b-c = 9724	 this: 0	total: 0
h = 43 	b-c = 9707	 this: 0	total: 0
h = 43 	b-c = 9690	 this: 0	total: 0
h = 43 	b-c = 9673	 this: 0	total: 0
h = 43 	b-c = 9656	 this: 0	total: 0
h = 43 	b-c = 9639	 this: 0	total: 0
h = 43 	b-c = 9622	 this: 0	total: 0
h = 43 	b-c = 9605	 this: 0	total: 0
h = 43 	b-c = 9588	 this: 0	total: 0
h = 43 	b-c = 9571	 this: 0	total: 0
h = 43 	b-c = 9554	 this: 0	total: 0
h = 43 	b-c = 9537	 this: 0	total: 0
h = 43 	b-c = 9520	 this: 0	total: 0
h = 44 	b-c = 9503	 this: 0	total: 0
h = 44 	b-c = 9486	 this: 0	total: 0
h = 44 	b-c = 9469	 this: 0	total: 0
h = 44 	b-c = 9452	 this: 0	total: 0
h = 44 	b-c = 9435	 this: 0	total: 0
h = 44 	b-c = 9418	 this: 0	total: 0
h = 44 	b-c = 9401	 this: 0	total: 0
h = 44 	b-c = 9384	 this: 0	total: 0
h = 45 	b-c = 9367	 this: 0	total: 0
h = 45 	b-c = 9350	 this: 0	total: 0
h = 45 	b-c = 9333	 this: 0	total: 0
h = 45 	b-c = 9316	 this: 0	total: 0
h = 45 	b-c = 9299	 this: 0	total: 0
h = 45 	b-c = 9282	 this: 0	total: 0
h = 45 	b-c = 9265	 this: 0	total: 0
h = 45 	b-c = 9248	 this: 0	total: 0
h = 45 	b-c = 9231	 this: 0	total: 0
h = 45 	b-c = 9214	 this: 0	total: 0
h = 45 	b-c = 9197	 this: 0	total: 0
h = 45 	b-c = 9180	 this: 0	total: 0
h = 45 	b-c = 9163	 this: 0	total: 0
h = 45 	b-c = 9146	 this: 0	total: 0
h = 45 	b-c = 9129	 this: 0	total: 0
h = 45 	b-c = 9112	 this: 0	total: 0
h = 45 	b-c = 9095	 this: 0	total: 0
h = 45 	b-c = 9078	 this: 0	total: 0
h = 46 	b-c = 9061	 this: 0	total: 0
h = 46 	b-c = 9044	 this: 0	total: 0
h = 46 	b-c = 9027	 this: 0	total: 0
h = 46 	b-c = 9010	 this: 0	total: 0
h = 47 	b-c = 8993	 this: 0	total: 0
h = 47 	b-c = 8976	 this: 0	total: 0
h = 47 	b-c = 8959	 this: 0	total: 0
h = 47 	b-c = 8942	 this: 0	total: 0
h = 47 	b-c = 8925	 this: 0	total: 0
h = 47 	b-c = 8908	 this: 0	total: 0
h = 47 	b-c = 8891	 this: 0	total: 0
h = 47 	b-c = 8874	 this: 0	total: 0
h = 48 	b-c = 8857	 this: 0	total: 0
h = 48 	b-c = 8840	 this: 0	total: 0
h = 48 	b-c = 8823	 this: 0	total: 0
h = 48 	b-c = 8806	 this: 0	total: 0
h = 49 	b-c = 8789	 this: 0	total: 0
h = 49 	b-c = 8772	 this: 0	total: 0
h = 49 	b-c = 8755	 this: 0	total: 0
h = 49 	b-c = 8738	 this: 0	total: 0
h = 49 	b-c = 8721	 this: 0	total: 0
h = 49 	b-c = 8704	 this: 0	total: 0
h = 49 	b-c = 8687	 this: 0	total: 0
h = 49 	b-c = 8670	 this: 0	total: 0
h = 49 	b-c = 8653	 this: 0	total: 0
h = 49 	b-c = 8636	 this: 0	total: 0
h = 49 	b-c = 8619	 this: 0	total: 0
h = 49 	b-c = 8602	 this: 0	total: 0
h = 49 	b-c = 8585	 this: 0	total: 0
h = 49 	b-c = 8568	 this: 0	total: 0
h = 49 	b-c = 8551	 this: 0	total: 0
h = 49 	b-c = 8534	 this: 0	total: 0
h = 49 	b-c = 8517	 this: 0	total: 0
h = 49 	b-c = 8500	 this: 0	total: 0
h = 49 	b-c = 8483	 this: 0	total: 0
h = 49 	b-c = 8466	 this: 0	total: 0
h = 50 	b-c = 8449	 this: 0	total: 0
h = 50 	b-c = 8432	 this: 0	total: 0
h = 50 	b-c = 8415	 this: 0	total: 0
h = 50 	b-c = 8398	 this: 0	total: 0
h = 50 	b-c = 8381	 this: 0	total: 0
h = 50 	b-c = 8364	 this: 0	total: 0
h = 50 	b-c = 8347	 this: 0	total: 0
h = 50 	b-c = 8330	 this: 0	total: 0
h = 50 	b-c = 8313	 this: 0	total: 0
h = 50 	b-c = 8296	 this: 0	total: 0
h = 50 	b-c = 8279	 this: 0	total: 0
h = 50 	b-c = 8262	 this: 0	total: 0
h = 50 	b-c = 8245	 this: 0	total: 0
h = 50 	b-c = 8228	 this: 0	total: 0
h = 50 	b-c = 8211	 this: 0	total: 0
h = 50 	b-c = 8194	 this: 0	total: 0
h = 50 	b-c = 8177	 this: 0	total: 0
h = 50 	b-c = 8160	 this: 0	total: 0
h = 50 	b-c = 8143	 this: 0	total: 0
h = 50 	b-c = 8126	 this: 0	total: 0
h = 50 	b-c = 8109	 this: 0	total: 0
h = 50 	b-c = 8092	 this: 0	total: 0
h = 50 	b-c = 8075	 this: 0	total: 0
h = 50 	b-c = 8058	 this: 0	total: 0
h = 51 	b-c = 8041	 this: 0	total: 0
h = 51 	b-c = 8024	 this: 0	total: 0
h = 51 	b-c = 8007	 this: 0	total: 0
h = 51 	b-c = 7990	 this: 0	total: 0
h = 51 	b-c = 7973	 this: 0	total: 0
h = 51 	b-c = 7956	 this: 0	total: 0
h = 52 	b-c = 7939	 this: 0	total: 0
h = 52 	b-c = 7922	 this: 0	total: 0
h = 52 	b-c = 7905	 this: 0	total: 0
h = 52 	b-c = 7888	 this: 0	total: 0
h = 53 	b-c = 7871	 this: 0	total: 0
h = 53 	b-c = 7854	 this: 0	total: 0
h = 54 	b-c = 7837	 this: 0	total: 0
h = 54 	b-c = 7820	 this: 0	total: 0
h = 54 	b-c = 7803	 this: 0	total: 0
h = 54 	b-c = 7786	 this: 0	total: 0
h = 54 	b-c = 7769	 this: 0	total: 0
h = 54 	b-c = 7752	 this: 0	total: 0
h = 54 	b-c = 7735	 this: 0	total: 0
h = 54 	b-c = 7718	 this: 0	total: 0
h = 54 	b-c = 7701	 this: 0	total: 0
h = 54 	b-c = 7684	 this: 0	total: 0
h = 55 	b-c = 7667	 this: 0	total: 0
h = 55 	b-c = 7650	 this: 0	total: 0
h = 55 	b-c = 7633	 this: 0	total: 0
h = 55 	b-c = 7616	 this: 0	total: 0
h = 55 	b-c = 7599	 this: 0	total: 0
h = 55 	b-c = 7582	 this: 0	total: 0
h = 55 	b-c = 7565	 this: 0	total: 0
h = 55 	b-c = 7548	 this: 0	total: 0
h = 55 	b-c = 7531	 this: 0	total: 0
h = 55 	b-c = 7514	 this: 0	total: 0
h = 55 	b-c = 7497	 this: 0	total: 0
h = 55 	b-c = 7480	 this: 0	total: 0
h = 55 	b-c = 7463	 this: 0	total: 0
h = 55 	b-c = 7446	 this: 0	total: 0
h = 55 	b-c = 7429	 this: 0	total: 0
h = 55 	b-c = 7412	 this: 0	total: 0
h = 55 	b-c = 7395	 this: 0	total: 0
h = 55 	b-c = 7378	 this: 0	total: 0
h = 55 	b-c = 7361	 this: 0	total: 0
h = 55 	b-c = 7344	 this: 0	total: 0
h = 56 	b-c = 7327	 this: 0	total: 0
h = 56 	b-c = 7310	 this: 0	total: 0
h = 56 	b-c = 7293	 this: 0	total: 0
h = 56 	b-c = 7276	 this: 0	total: 0
h = 56 	b-c = 7259	 this: 0	total: 0
h = 56 	b-c = 7242	 this: 0	total: 0
h = 56 	b-c = 7225	 this: 0	total: 0
h = 56 	b-c = 7208	 this: 0	total: 0
h = 56 	b-c = 7191	 this: 0	total: 0
h = 56 	b-c = 7174	 this: 0	total: 0
h = 56 	b-c = 7157	 this: 0	total: 0
h = 56 	b-c = 7140	 this: 0	total: 0
h = 56 	b-c = 7123	 this: 0	total: 0
h = 56 	b-c = 7106	 this: 0	total: 0
h = 56 	b-c = 7089	 this: 0	total: 0
h = 56 	b-c = 7072	 this: 0	total: 0
h = 56 	b-c = 7055	 this: 0	total: 0
h = 56 	b-c = 7038	 this: 0	total: 0
h = 56 	b-c = 7021	 this: 0	total: 0
h = 56 	b-c = 7004	 this: 0	total: 0
h = 56 	b-c = 6987	 this: 0	total: 0
h = 56 	b-c = 6970	 this: 0	total: 0
h = 56 	b-c = 6953	 this: 0	total: 0
h = 56 	b-c = 6936	 this: 0	total: 0
h = 56 	b-c = 6919	 this: 0	total: 0
h = 56 	b-c = 6902	 this: 0	total: 0
h = 56 	b-c = 6885	 this: 0	total: 0
h = 56 	b-c = 6868	 this: 0	total: 0
h = 56 	b-c = 6851	 this: 0	total: 0
h = 56 	b-c = 6834	 this: 0	total: 0
h = 56 	b-c = 6817	 this: 0	total: 0
h = 56 	b-c = 6800	 this: 0	total: 0
h = 56 	b-c = 6783	 this: 0	total: 0
h = 56 	b-c = 6766	 this: 0	total: 0
h = 57 	b-c = 6749	 this: 0	total: 0
h = 57 	b-c = 6732	 this: 0	total: 0
h = 57 	b-c = 6715	 this: 0	total: 0
h = 57 	b-c = 6698	 this: 0	total: 0
h = 57 	b-c = 6681	 this: 0	total: 0
h = 57 	b-c = 6664	 this: 0	total: 0
h = 58 	b-c = 6647	 this: 0	total: 0
h = 58 	b-c = 6630	 this: 0	total: 0
h = 59 	b-c = 6613	 this: 0	total: 0
h = 59 	b-c = 6596	 this: 0	total: 0
h = 59 	b-c = 6579	 this: 0	total: 0
h = 59 	b-c = 6562	 this: 0	total: 0
h = 59 	b-c = 6545	 this: 0	total: 0
h = 59 	b-c = 6528	 this: 0	total: 0
h = 59 	b-c = 6511	 this: 0	total: 0
h = 59 	b-c = 6494	 this: 0	total: 0
h = 59 	b-c = 6477	 this: 0	total: 0
h = 59 	b-c = 6460	 this: 0	total: 0
h = 59 	b-c = 6443	 this: 0	total: 0
h = 59 	b-c = 6426	 this: 0	total: 0
h = 60 	b-c = 6409	 this: 0	total: 0
h = 60 	b-c = 6392	 this: 0	total: 0
h = 60 	b-c = 6375	 this: 0	total: 0
h = 60 	b-c = 6358	 this: 0	total: 0
h = 60 	b-c = 6341	 this: 0	total: 0
h = 60 	b-c = 6324	 this: 0	total: 0
h = 61 	b-c = 6307	 this: 0	total: 0
h = 61 	b-c = 6290	 this: 0	total: 0
h = 61 	b-c = 6273	 this: 0	total: 0
h = 61 	b-c = 6256	 this: 0	total: 0
h = 61 	b-c = 6239	 this: 0	total: 0
h = 61 	b-c = 6222	 this: 0	total: 0
h = 61 	b-c = 6205	 this: 0	total: 0
h = 61 	b-c = 6188	 this: 0	total: 0
h = 61 	b-c = 6171	 this: 0	total: 0
h = 61 	b-c = 6154	 this: 0	total: 0
h = 62 	b-c = 6137	 this: 0	total: 0
h = 62 	b-c = 6120	 this: 0	total: 0
h = 62 	b-c = 6103	 this: 0	total: 0
h = 62 	b-c = 6086	 this: 0	total: 0
h = 62 	b-c = 6069	 this: 0	total: 0
h = 62 	b-c = 6052	 this: 0	total: 0
h = 62 	b-c = 6035	 this: 0	total: 0
h = 62 	b-c = 6018	 this: 0	total: 0
h = 63 	b-c = 6001	 this: 0	total: 0
h = 63 	b-c = 5984	 this: 0	total: 0
h = 63 	b-c = 5967	 this: 0	total: 0
h = 63 	b-c = 5950	 this: 0	total: 0
h = 63 	b-c = 5933	 this: 0	total: 0
h = 63 	b-c = 5916	 this: 0	total: 0
h = 64 	b-c = 5899	 this: 0	total: 0
h = 64 	b-c = 5882	 this: 0	total: 0
h = 64 	b-c = 5865	 this: 0	total: 0
h = 64 	b-c = 5848	 this: 0	total: 0
h = 64 	b-c = 5831	 this: 0	total: 0
h = 64 	b-c = 5814	 this: 0	total: 0
h = 65 	b-c = 5797	 this: 0	total: 0
h = 65 	b-c = 5780	 this: 0	total: 0
h = 65 	b-c = 5763	 this: 0	total: 0
h = 65 	b-c = 5746	 this: 0	total: 0
h = 65 	b-c = 5729	 this: 0	total: 0
h = 65 	b-c = 5712	 this: 0	total: 0
h = 65 	b-c = 5695	 this: 0	total: 0
h = 65 	b-c = 5678	 this: 0	total: 0
h = 65 	b-c = 5661	 this: 0	total: 0
h = 65 	b-c = 5644	 this: 0	total: 0
h = 65 	b-c = 5627	 this: 0	total: 0
h = 65 	b-c = 5610	 this: 0	total: 0
h = 65 	b-c = 5593	 this: 0	total: 0
h = 65 	b-c = 5576	 this: 0	total: 0
h = 65 	b-c = 5559	 this: 0	total: 0
h = 65 	b-c = 5542	 this: 0	total: 0
h = 65 	b-c = 5525	 this: 0	total: 0
h = 65 	b-c = 5508	 this: 0	total: 0
h = 65 	b-c = 5491	 this: 0	total: 0
h = 65 	b-c = 5474	 this: 0	total: 0
h = 65 	b-c = 5457	 this: 0	total: 0
h = 65 	b-c = 5440	 this: 0	total: 0
h = 66 	b-c = 5423	 this: 0	total: 0
h = 66 	b-c = 5406	 this: 0	total: 0
h = 66 	b-c = 5389	 this: 0	total: 0
h = 66 	b-c = 5372	 this: 0	total: 0
h = 66 	b-c = 5355	 this: 0	total: 0
h = 66 	b-c = 5338	 this: 0	total: 0
h = 66 	b-c = 5321	 this: 0	total: 0
h = 66 	b-c = 5304	 this: 0	total: 0
h = 67 	b-c = 5287	 this: 0	total: 0
h = 67 	b-c = 5270	 this: 0	total: 0
h = 67 	b-c = 5253	 this: 0	total: 0
h = 67 	b-c = 5236	 this: 0	total: 0
h = 68 	b-c = 5219	 this: 0	total: 0
h = 68 	b-c = 5202	 this: 0	total: 0
h = 68 	b-c = 5185	 this: 0	total: 0
h = 68 	b-c = 5168	 this: 0	total: 0
h = 68 	b-c = 5151	 this: 0	total: 0
h = 68 	b-c = 5134	 this: 0	total: 0
h = 68 	b-c = 5117	 this: 0	total: 0
h = 68 	b-c = 5100	 this: 0	total: 0
h = 68 	b-c = 5083	 this: 0	total: 0
h = 68 	b-c = 5066	 this: 0	total: 0
h = 68 	b-c = 5049	 this: 0	total: 0
h = 68 	b-c = 5032	 this: 0	total: 0
h = 68 	b-c = 5015	 this: 0	total: 0
h = 68 	b-c = 4998	 this: 0	total: 0
h = 68 	b-c = 4981	 this: 0	total: 0
h = 68 	b-c = 4964	 this: 0	total: 0
h = 68 	b-c = 4947	 this: 0	total: 0
h = 68 	b-c = 4930	 this: 0	total: 0
h = 68 	b-c = 4913	 this: 0	total: 0
h = 68 	b-c = 4896	 this: 0	total: 0
h = 69 	b-c = 4879	 this: 0	total: 0
h = 69 	b-c = 4862	 this: 0	total: 0
h = 69 	b-c = 4845	 this: 0	total: 0
h = 69 	b-c = 4828	 this: 0	total: 0
h = 69 	b-c = 4811	 this: 0	total: 0
h = 69 	b-c = 4794	 this: 0	total: 0
h = 70 	b-c = 4777	 this: 0	total: 0
h = 70 	b-c = 4760	 this: 0	total: 0
h = 70 	b-c = 4743	 this: 0	total: 0
h = 70 	b-c = 4726	 this: 0	total: 0
h = 71 	b-c = 4709	 this: 0	total: 0
h = 71 	b-c = 4692	 this: 0	total: 0
h = 71 	b-c = 4675	 this: 0	total: 0
h = 71 	b-c = 4658	 this: 0	total: 0
h = 71 	b-c = 4641	 this: 0	total: 0
h = 71 	b-c = 4624	 this: 0	total: 0
h = 71 	b-c = 4607	 this: 0	total: 0
h = 71 	b-c = 4590	 this: 0	total: 0
h = 72 	b-c = 4573	 this: 0	total: 0
h = 72 	b-c = 4556	 this: 0	total: 0
h = 72 	b-c = 4539	 this: 0	total: 0
h = 72 	b-c = 4522	 this: 0	total: 0
h = 72 	b-c = 4505	 this: 0	total: 0
h = 72 	b-c = 4488	 this: 0	total: 0
h = 72 	b-c = 4471	 this: 0	total: 0
h = 72 	b-c = 4454	 this: 0	total: 0
h = 72 	b-c = 4437	 this: 0	total: 0
h = 72 	b-c = 4420	 this: 0	total: 0
h = 72 	b-c = 4403	 this: 0	total: 0
h = 72 	b-c = 4386	 this: 0	total: 0
h = 73 	b-c = 4369	 this: 0	total: 0
h = 73 	b-c = 4352	 this: 0	total: 0
h = 73 	b-c = 4335	 this: 0	total: 0
h = 73 	b-c = 4318	 this: 0	total: 0
h = 73 	b-c = 4301	 this: 0	total: 0
h = 73 	b-c = 4284	 this: 0	total: 0
h = 74 	b-c = 4267	 this: 0	total: 0
h = 74 	b-c = 4250	 this: 0	total: 0
h = 74 	b-c = 4233	 this: 0	total: 0
h = 74 	b-c = 4216	 this: 0	total: 0
h = 74 	b-c = 4199	 this: 0	total: 0
h = 74 	b-c = 4182	 this: 0	total: 0
h = 74 	b-c = 4165	 this: 0	total: 0
h = 74 	b-c = 4148	 this: 0	total: 0
h = 74 	b-c = 4131	 this: 0	total: 0
h = 74 	b-c = 4114	 this: 0	total: 0
h = 75 	b-c = 4097	 this: 0	total: 0
h = 75 	b-c = 4080	 this: 0	total: 0
h = 75 	b-c = 4063	 this: 0	total: 0
h = 75 	b-c = 4046	 this: 0	total: 0
h = 75 	b-c = 4029	 this: 0	total: 0
h = 75 	b-c = 4012	 this: 0	total: 0
h = 75 	b-c = 3995	 this: 0	total: 0
h = 75 	b-c = 3978	 this: 0	total: 0
h = 75 	b-c = 3961	 this: 0	total: 0
h = 75 	b-c = 3944	 this: 0	total: 0
h = 75 	b-c = 3927	 this: 0	total: 0
h = 75 	b-c = 3910	 this: 0	total: 0
h = 75 	b-c = 3893	 this: 0	total: 0
h = 75 	b-c = 3876	 this: 0	total: 0
h = 75 	b-c = 3859	 this: 0	total: 0
h = 75 	b-c = 3842	 this: 0	total: 0
h = 75 	b-c = 3825	 this: 0	total: 0
h = 75 	b-c = 3808	 this: 0	total: 0
h = 76 	b-c = 3791	 this: 0	total: 0
h = 76 	b-c = 3774	 this: 0	total: 0
h = 76 	b-c = 3757	 this: 0	total: 0
h = 76 	b-c = 3740	 this: 0	total: 0
h = 76 	b-c = 3723	 this: 0	total: 0
h = 76 	b-c = 3706	 this: 0	total: 0
h = 77 	b-c = 3689	 this: 0	total: 0
h = 77 	b-c = 3672	 this: 0	total: 0
h = 77 	b-c = 3655	 this: 0	total: 0
h = 77 	b-c = 3638	 this: 0	total: 0
h = 77 	b-c = 3621	 this: 0	total: 0
h = 77 	b-c = 3604	 this: 0	total: 0
h = 77 	b-c = 3587	 this: 0	total: 0
h = 77 	b-c = 3570	 this: 0	total: 0
h = 77 	b-c = 3553	 this: 0	total: 0
h = 77 	b-c = 3536	 this: 0	total: 0
h = 77 	b-c = 3519	 this: 0	total: 0
h = 77 	b-c = 3502	 this: 0	total: 0
h = 77 	b-c = 3485	 this: 0	total: 0
h = 77 	b-c = 3468	 this: 0	total: 0
h = 78 	b-c = 3451	 this: 0	total: 0
h = 78 	b-c = 3434	 this: 0	total: 0
h = 78 	b-c = 3417	 this: 0	total: 0
h = 78 	b-c = 3400	 this: 0	total: 0
h = 78 	b-c = 3383	 this: 0	total: 0
h = 78 	b-c = 3366	 this: 0	total: 0
h = 78 	b-c = 3349	 this: 0	total: 0
h = 78 	b-c = 3332	 this: 0	total: 0
h = 78 	b-c = 3315	 this: 0	total: 0
h = 78 	b-c = 3298	 this: 0	total: 0
h = 78 	b-c = 3281	 this: 0	total: 0
h = 78 	b-c = 3264	 this: 0	total: 0
h = 78 	b-c = 3247	 this: 0	total: 0
h = 78 	b-c = 3230	 this: 0	total: 0
h = 78 	b-c = 3213	 this: 0	total: 0
h = 78 	b-c = 3196	 this: 0	total: 0
h = 79 	b-c = 3179	 this: 0	total: 0
h = 79 	b-c = 3162	 this: 0	total: 0
h = 79 	b-c = 3145	 this: 0	total: 0
h = 79 	b-c = 3128	 this: 0	total: 0
h = 79 	b-c = 3111	 this: 0	total: 0
h = 79 	b-c = 3094	 this: 0	total: 0
h = 79 	b-c = 3077	 this: 0	total: 0
h = 79 	b-c = 3060	 this: 0	total: 0
h = 79 	b-c = 3043	 this: 0	total: 0
h = 79 	b-c = 3026	 this: 0	total: 0
h = 79 	b-c = 3009	 this: 0	total: 0
h = 79 	b-c = 2992	 this: 0	total: 0
h = 79 	b-c = 2975	 this: 0	total: 0
h = 79 	b-c = 2958	 this: 0	total: 0
h = 79 	b-c = 2941	 this: 0	total: 0
h = 79 	b-c = 2924	 this: 0	total: 0
h = 79 	b-c = 2907	 this: 0	total: 0
h = 79 	b-c = 2890	 this: 0	total: 0
h = 80 	b-c = 2873	 this: 0	total: 0
h = 80 	b-c = 2856	 this: 0	total: 0
h = 80 	b-c = 2839	 this: 0	total: 0
h = 80 	b-c = 2822	 this: 0	total: 0
h = 80 	b-c = 2805	 this: 0	total: 0
h = 80 	b-c = 2788	 this: 0	total: 0
h = 80 	b-c = 2771	 this: 0	total: 0
h = 80 	b-c = 2754	 this: 0	total: 0
h = 80 	b-c = 2737	 this: 0	total: 0
h = 80 	b-c = 2720	 this: 0	total: 0
h = 80 	b-c = 2703	 this: 0	total: 0
h = 80 	b-c = 2686	 this: 0	total: 0
h = 81 	b-c = 2669	 this: 0	total: 0
h = 81 	b-c = 2652	 this: 0	total: 0
h = 81 	b-c = 2635	 this: 0	total: 0
h = 81 	b-c = 2618	 this: 0	total: 0
h = 81 	b-c = 2601	 this: 0	total: 0
h = 81 	b-c = 2584	 this: 0	total: 0
h = 82 	b-c = 2567	 this: 0	total: 0
h = 82 	b-c = 2550	 this: 0	total: 0
h = 82 	b-c = 2533	 this: 0	total: 0
h = 82 	b-c = 2516	 this: 0	total: 0
h = 82 	b-c = 2499	 this: 0	total: 0
h = 82 	b-c = 2482	 this: 0	total: 0
h = 82 	b-c = 2465	 this: 0	total: 0
h = 82 	b-c = 2448	 this: 0	total: 0
h = 82 	b-c = 2431	 this: 0	total: 0
h = 82 	b-c = 2414	 this: 0	total: 0
h = 82 	b-c = 2397	 this: 0	total: 0
h = 82 	b-c = 2380	 this: 0	total: 0
h = 82 	b-c = 2363	 this: 0	total: 0
h = 82 	b-c = 2346	 this: 0	total: 0
h = 82 	b-c = 2329	 this: 0	total: 0
h = 82 	b-c = 2312	 this: 0	total: 0
h = 82 	b-c = 2295	 this: 0	total: 0
h = 82 	b-c = 2278	 this: 0	total: 0
h = 82 	b-c = 2261	 this: 0	total: 0
h = 82 	b-c = 2244	 this: 0	total: 0
h = 82 	b-c = 2227	 this: 0	total: 0
h = 82 	b-c = 2210	 this: 0	total: 0
h = 82 	b-c = 2193	 this: 0	total: 0
h = 82 	b-c = 2176	 this: 0	total: 0
h = 82 	b-c = 2159	 this: 0	total: 0
h = 82 	b-c = 2142	 this: 0	total: 0
h = 82 	b-c = 2125	 this: 0	total: 0
h = 82 	b-c = 2108	 this: 0	total: 0
h = 82 	b-c = 2091	 this: 0	total: 0
h = 82 	b-c = 2074	 this: 0	total: 0
h = 82 	b-c = 2057	 this: 0	total: 0
h = 82 	b-c = 2040	 this: 0	total: 0
h = 83 	b-c = 2023	 this: 0	total: 0
h = 83 	b-c = 2006	 this: 0	total: 0
h = 83 	b-c = 1989	 this: 0	total: 0
h = 83 	b-c = 1972	 this: 0	total: 0
h = 83 	b-c = 1955	 this: 0	total: 0
h = 83 	b-c = 1938	 this: 0	total: 0
h = 83 	b-c = 1921	 this: 0	total: 0
h = 83 	b-c = 1904	 this: 0	total: 0
h = 83 	b-c = 1887	 this: 0	total: 0
h = 83 	b-c = 1870	 this: 0	total: 0
h = 84 	b-c = 1853	 this: 0	total: 0
h = 84 	b-c = 1836	 this: 0	total: 0
h = 84 	b-c = 1819	 this: 0	total: 0
h = 84 	b-c = 1802	 this: 0	total: 0
h = 84 	b-c = 1785	 this: 0	total: 0
h = 84 	b-c = 1768	 this: 0	total: 0
h = 84 	b-c = 1751	 this: 0	total: 0
h = 84 	b-c = 1734	 this: 0	total: 0
h = 84 	b-c = 1717	 this: 0	total: 0
h = 84 	b-c = 1700	 this: 0	total: 0
h = 84 	b-c = 1683	 this: 0	total: 0
h = 84 	b-c = 1666	 this: 0	total: 0
h = 84 	b-c = 1649	 this: 0	total: 0
h = 84 	b-c = 1632	 this: 0	total: 0
h = 84 	b-c = 1615	 this: 0	total: 0
h = 84 	b-c = 1598	 this: 0	total: 0
h = 84 	b-c = 1581	 this: 0	total: 0
h = 84 	b-c = 1564	 this: 0	total: 0
h = 85 	b-c = 1547	 this: 0	total: 0
h = 85 	b-c = 1530	 this: 0	total: 0
h = 85 	b-c = 1513	 this: 0	total: 0
h = 85 	b-c = 1496	 this: 0	total: 0
h = 85 	b-c = 1479	 this: 0	total: 0
h = 85 	b-c = 1462	 this: 0	total: 0
h = 85 	b-c = 1445	 this: 0	total: 0
h = 85 	b-c = 1428	 this: 0	total: 0
h = 85 	b-c = 1411	 this: 0	total: 0
h = 85 	b-c = 1394	 this: 0	total: 0
h = 85 	b-c = 1377	 this: 0	total: 0
h = 85 	b-c = 1360	 this: 0	total: 0
h = 85 	b-c = 1343	 this: 0	total: 0
h = 85 	b-c = 1326	 this: 0	total: 0
h = 86 	b-c = 1309	 this: 0	total: 0
h = 86 	b-c = 1292	 this: 0	total: 0
h = 86 	b-c = 1275	 this: 0	total: 0
h = 86 	b-c = 1258	 this: 0	total: 0
h = 86 	b-c = 1241	 this: 0	total: 0
h = 86 	b-c = 1224	 this: 0	total: 0
h = 87 	b-c = 1207	 this: 0	total: 0
h = 87 	b-c = 1190	 this: 0	total: 0
h = 87 	b-c = 1173	 this: 0	total: 0
h = 87 	b-c = 1156	 this: 0	total: 0
h = 87 	b-c = 1139	 this: 0	total: 0
h = 87 	b-c = 1122	 this: 0	total: 0
h = 87 	b-c = 1105	 this: 0	total: 0
h = 87 	b-c = 1088	 this: 0	total: 0
h = 87 	b-c = 1071	 this: 0	total: 0
h = 87 	b-c = 1054	 this: 0	total: 0
h = 87 	b-c = 1037	 this: 0	total: 0
h = 87 	b-c = 1020	 this: 0	total: 0
h = 87 	b-c = 1003	 this: 0	total: 0
h = 87 	b-c = 986	 this: 0	total: 0
h = 87 	b-c = 969	 this: 0	total: 0
h = 87 	b-c = 952	 this: 0	total: 0
h = 87 	b-c = 935	 this: 0	total: 0
h = 87 	b-c = 918	 this: 0	total: 0
h = 88 	b-c = 901	 this: 0	total: 0
h = 88 	b-c = 884	 this: 0	total: 0
h = 88 	b-c = 867	 this: 0	total: 0
h = 88 	b-c = 850	 this: 0	total: 0
h = 88 	b-c = 833	 this: 0	total: 0
h = 88 	b-c = 816	 this: 0	total: 0
h = 88 	b-c = 799	 this: 0	total: 0
h = 88 	b-c = 782	 this: 0	total: 0
h = 88 	b-c = 765	 this: 0	total: 0
h = 88 	b-c = 748	 this: 0	total: 0
h = 88 	b-c = 731	 this: 0	total: 0
h = 88 	b-c = 714	 this: 0	total: 0
h = 88 	b-c = 697	 this: 0	total: 0
h = 88 	b-c = 680	 this: 0	total: 0
h = 88 	b-c = 663	 this: 0	total: 0
h = 88 	b-c = 646	 this: 0	total: 0
h = 88 	b-c = 629	 this: 0	total: 0
h = 88 	b-c = 612	 this: 0	total: 0
h = 88 	b-c = 595	 this: 0	total: 0
h = 88 	b-c = 578	 this: 0	total: 0
h = 88 	b-c = 561	 this: 0	total: 0
h = 88 	b-c = 544	 this: 0	total: 0
h = 88 	b-c = 527	 this: 0	total: 0
h = 88 	b-c = 510	 this: 0	total: 0
h = 88 	b-c = 493	 this: 0	total: 0
h = 88 	b-c = 476	 this: 0	total: 0
h = 88 	b-c = 459	 this: 0	total: 0
h = 88 	b-c = 442	 this: 0	total: 0
h = 88 	b-c = 425	 this: 0	total: 0
h = 88 	b-c = 408	 this: 0	total: 0
h = 88 	b-c = 391	 this: 0	total: 0
h = 88 	b-c = 374	 this: 0	total: 0
h = 88 	b-c = 357	 this: 0	total: 0
h = 88 	b-c = 340	 this: 0	total: 0
h = 88 	b-c = 323	 this: 0	total: 0
h = 88 	b-c = 306	 this: 0	total: 0
h = 89 	b-c = 289	 this: 0	total: 0
h = 89 	b-c = 272	 this: 0	total: 0
h = 89 	b-c = 255	 this: 0	total: 0
h = 89 	b-c = 238	 this: 0	total: 0
h = 90 	b-c = 221	 this: 0	total: 0
h = 90 	b-c = 204	 this: 0	total: 0
h = 90 	b-c = 187	 this: 0	total: 0
h = 90 	b-c = 170	 this: 0	total: 0
h = 90 	b-c = 153	 this: 0	total: 0
h = 90 	b-c = 136	 this: 0	total: 0
h = 90 	b-c = 119	 this: 0	total: 0
h = 90 	b-c = 102	 this: 0	total: 0
h = 90 	b-c = 85	 this: 0	total: 0
h = 90 	b-c = 68	 this: 0	total: 0
h = 90 	b-c = 51	 this: 0	total: 0
h = 90 	b-c = 34	 this: 0	total: 0
h = 90 	b-c = 17	 this: 0	total: 0
h = 90 	b-c = 0	 this: 0	total: 0
h = 90

Process finished with exit code 0





"C:\Program Files\Java\jdk1.8.0_92\bin\java" -Dvisualvm.id=885938312770378 "-javaagent:C:\Program Files\JetBrains\IntelliJ IDEA 2017.3\lib\idea_rt.jar=58956:C:\Program Files\JetBrains\IntelliJ IDEA 2017.3\bin" -Dfile.encoding=UTF-8 -classpath "C:\Program Files\Java\jdk1.8.0_92\jre\lib\charsets.jar;C:\Program Files\Java\jdk1.8.0_92\jre\lib\deploy.jar;C:\Program Files\Java\jdk1.8.0_92\jre\lib\ext\access-bridge-64.jar;C:\Program Files\Java\jdk1.8.0_92\jre\lib\ext\cldrdata.jar;C:\Program Files\Java\jdk1.8.0_92\jre\lib\ext\dnsns.jar;C:\Program Files\Java\jdk1.8.0_92\jre\lib\ext\jaccess.jar;C:\Program Files\Java\jdk1.8.0_92\jre\lib\ext\jfxrt.jar;C:\Program Files\Java\jdk1.8.0_92\jre\lib\ext\localedata.jar;C:\Program Files\Java\jdk1.8.0_92\jre\lib\ext\nashorn.jar;C:\Program Files\Java\jdk1.8.0_92\jre\lib\ext\sunec.jar;C:\Program Files\Java\jdk1.8.0_92\jre\lib\ext\sunjce_provider.jar;C:\Program Files\Java\jdk1.8.0_92\jre\lib\ext\sunmscapi.jar;C:\Program Files\Java\jdk1.8.0_92\jre\lib\ext\sunpkcs11.jar;C:\Program Files\Java\jdk1.8.0_92\jre\lib\ext\zipfs.jar;C:\Program Files\Java\jdk1.8.0_92\jre\lib\javaws.jar;C:\Program Files\Java\jdk1.8.0_92\jre\lib\jce.jar;C:\Program Files\Java\jdk1.8.0_92\jre\lib\jfr.jar;C:\Program Files\Java\jdk1.8.0_92\jre\lib\jfxswt.jar;C:\Program Files\Java\jdk1.8.0_92\jre\lib\jsse.jar;C:\Program Files\Java\jdk1.8.0_92\jre\lib\management-agent.jar;C:\Program Files\Java\jdk1.8.0_92\jre\lib\plugin.jar;C:\Program Files\Java\jdk1.8.0_92\jre\lib\resources.jar;C:\Program Files\Java\jdk1.8.0_92\jre\lib\rt.jar;C:\Projects\Ximedes\AdventOfCode2017\out\production\AdventOfCode2017;C:\Users\Erik\.IntelliJIdea2017.3\config\plugins\Kotlin\kotlinc\lib\kotlin-stdlib.jar;C:\Users\Erik\.IntelliJIdea2017.3\config\plugins\Kotlin\kotlinc\lib\kotlin-reflect.jar;C:\Users\Erik\.IntelliJIdea2017.3\config\plugins\Kotlin\kotlinc\lib\kotlin-test.jar;C:\Users\Erik\.IntelliJIdea2017.3\config\plugins\Kotlin\kotlinc\lib\kotlin-stdlib-jdk7.jar;C:\Users\Erik\.IntelliJIdea2017.3\config\plugins\Kotlin\kotlinc\lib\kotlin-stdlib-jdk8.jar;C:\Program Files\JetBrains\IntelliJ IDEA 2017.3\lib\groovy-all-2.4.12.jar;C:\Users\Erik\.m2\repository\org\junit\jupiter\junit-jupiter-api\5.0.0\junit-jupiter-api-5.0.0.jar;C:\Users\Erik\.m2\repository\org\apiguardian\apiguardian-api\1.0.0\apiguardian-api-1.0.0.jar;C:\Users\Erik\.m2\repository\org\opentest4j\opentest4j\1.0.0\opentest4j-1.0.0.jar;C:\Users\Erik\.m2\repository\org\junit\platform\junit-platform-commons\1.0.0\junit-platform-commons-1.0.0.jar" dec23.Dec23_program3Kt
b: 109300, c: 126300
Prime: 109453
Prime: 109589
Prime: 109793
Prime: 110269
Prime: 110609
Prime: 110711
Prime: 110813
Prime: 110881
Prime: 111119
Prime: 111187
Prime: 111323
Prime: 111493
Prime: 111697
Prime: 111731
Prime: 111799
Prime: 111833
Prime: 112139
Prime: 112207
Prime: 112241
Prime: 112921
Prime: 113023
Prime: 113159
Prime: 113227
Prime: 113329
Prime: 113363
Prime: 113567
Prime: 114043
Prime: 114077
Prime: 114281
Prime: 114451
Prime: 114553
Prime: 114689
Prime: 114757
Prime: 114859
Prime: 115301
Prime: 115471
Prime: 115777
Prime: 115811
Prime: 115879
Prime: 115981
Prime: 116423
Prime: 116491
Prime: 116593
Prime: 116797
Prime: 116933
Prime: 117239
Prime: 117307
Prime: 117443
Prime: 117511
Prime: 117851
Prime: 118259
Prime: 118361
Prime: 118429
Prime: 118463
Prime: 118633
Prime: 118973
Prime: 119551
Prime: 119653
Prime: 119687
Prime: 119891
Prime: 119993
Prime: 120163
Prime: 120299
Prime: 120401
Prime: 120503
Prime: 120877
Prime: 121013
Prime: 121081
Prime: 121421
Prime: 121523
Prime: 121591
Prime: 121727
Prime: 121931
Prime: 122033
Prime: 122203
Prime: 122509
Prime: 122611
Prime: 122849
Prime: 123121
Prime: 123427
Prime: 123631
Prime: 123733
Prime: 124277
Prime: 124447
Prime: 124753
Prime: 124991
Prime: 125093
Prime: 125399
Prime: 126011
Prime: 126079
h = 90

Process finished with exit code 0







package dec23

import kotlin.text.Typography.prime

/**
 *
 */
fun main(args: Array<String>) {

    val h = execute2()
    println("h = $h")
}

fun execute2(): Int {

    val start = System.currentTimeMillis()
    var mid = start


    var a = 1
    var b = 0
    var c = 0
    var d = 0
    var e = 0
    var f = 0
    var h = 0


    b = 93
    c = b


    b *= 100
    b -=  -100000
    c = b
    c -= -17000

    println("b: $b, c: $c")
//    System.exit(12)

    do	{
//        f = 1
        var prime = true
        d = 2
        do	{

            val candidatePrime:Int = b / d
            if (candidatePrime * d == b) {
                prime = false
            }

//            e = 2
//            do	{

//                if ((d * e) == b) {
//                    f = 0
//                }
//                e++
//
//            } while (f ==1 && e != b)
            d++
//            val now = System.currentTimeMillis()
//            println("${(now - mid) / 1000} total: ${(now - start) / 1000}")
//            println("d = $d")

        } while (prime && d - b != 0)

        val now = System.currentTimeMillis()



        if (prime) {
            h++
        }
        println("h = $h \tb-c = ${c-b}\t this: ${(now - mid) / 1000}\ttotal: ${(now - start) / 1000}")


        if (b-c == 0)
            return h
        b += 17
    } while (true)
}